//
// Design Resource Utilization Report
// Generated on: Fri 23 Feb 2018 14:28:00 +0000
//

medianRow1 Total: 
3    Less Thans : 1x33 1x32 1x16 
28   Muxs : 23x32 1x16 4x1 
5    Latchs : 4x32 1x1 
43   Ands : 43x1 
13   Adds : 5x64 7x32 1x17 
56   Registers : 23x32 2x16 31x1 
21   Ors : 21x1 
9    Nots : 9x1 
1    Greater Than : 1x32 
3    Logical Ands : 3x1 
5    Memorys : 5x32 
3    Equal Tos : 3x32 

Design: medianRow1
------------------
Entry: medianRow1_receive_instance
----------------------------------
    Method: medianRow1_receive
    --------------------------
    1    Or : 1x1 
    1    And : 1x1 
    2    Adds : 1x64 1x32 
    2    Registers : 2x1 

    Method Total:
    1    Or : 1x1 
    1    And : 1x1 
    2    Adds : 1x64 1x32 
    2    Registers : 2x1 
    -------------
-----------------------------------------
Entry: medianRow1_receive_instance Total: 
1    Or : 1x1 
1    And : 1x1 
2    Adds : 1x64 1x32 
2    Registers : 2x1 
-----------------------------------------

Entry: medianRow1_compute_median_instance
-----------------------------------------
    Method: medianRow1_compute_median
    ---------------------------------
    2    Less Thans : 1x33 1x16 
    25   Muxs : 20x32 1x16 4x1 
    5    Latchs : 4x32 1x1 
    19   Ands : 19x1 
    11   Adds : 4x64 6x32 1x17 
    46   Registers : 23x32 2x16 21x1 
    12   Ors : 12x1 
    3    Nots : 3x1 
    1    Greater Than : 1x32 
    1    Logical And : 1x1 
    5    Memorys : 5x32 

    Method Total:
    2    Less Thans : 1x33 1x16 
    25   Muxs : 20x32 1x16 4x1 
    5    Latchs : 4x32 1x1 
    19   Ands : 19x1 
    11   Adds : 4x64 6x32 1x17 
    46   Registers : 23x32 2x16 21x1 
    12   Ors : 12x1 
    3    Nots : 3x1 
    1    Greater Than : 1x32 
    1    Logical And : 1x1 
    5    Memorys : 5x32 
    -------------
------------------------------------------------
Entry: medianRow1_compute_median_instance Total: 
2    Less Thans : 1x33 1x16 
25   Muxs : 20x32 1x16 4x1 
5    Latchs : 4x32 1x1 
19   Ands : 19x1 
11   Adds : 4x64 6x32 1x17 
46   Registers : 23x32 2x16 21x1 
12   Ors : 12x1 
3    Nots : 3x1 
1    Greater Than : 1x32 
1    Logical And : 1x1 
5    Memorys : 5x32 
------------------------------------------------

Entry: medianRow1_scheduler_instance
------------------------------------
    Method: medianRow1_scheduler
    ----------------------------
    1    Less Than : 1x32 
    8    Ors : 8x1 
    3    Muxs : 3x32 
    6    Nots : 6x1 
    23   Ands : 23x1 
    2    Logical Ands : 2x1 
    3    Equal Tos : 3x32 
    8    Registers : 8x1 

    Method Total:
    1    Less Than : 1x32 
    8    Ors : 8x1 
    3    Muxs : 3x32 
    6    Nots : 6x1 
    23   Ands : 23x1 
    2    Logical Ands : 2x1 
    3    Equal Tos : 3x32 
    8    Registers : 8x1 
    -------------
-------------------------------------------
Entry: medianRow1_scheduler_instance Total: 
1    Less Than : 1x32 
8    Ors : 8x1 
3    Muxs : 3x32 
6    Nots : 6x1 
23   Ands : 23x1 
2    Logical Ands : 2x1 
3    Equal Tos : 3x32 
8    Registers : 8x1 
-------------------------------------------

