//
// Design Resource Utilization Report
// Generated on: Fri 23 Feb 2018 14:27:57 +0000
//

split Total: 
4    Less Thans : 4x32 
7    Ors : 7x1 
6    Muxs : 6x32 
16   Nots : 16x1 
53   Ands : 53x1 
4    Adds : 4x64 
4    Logical Ands : 4x1 
8    Registers : 8x1 
5    Equal Tos : 5x32 

Design: split
-------------
Entry: split_reset_instance
---------------------------
    Method: split_reset
    -------------------
    1    Register : 1x1 

    Method Total:
    1    Register : 1x1 
    -------------
----------------------------------
Entry: split_reset_instance Total: 
1    Register : 1x1 
----------------------------------

Entry: split_fanOut1_instance
-----------------------------
    Method: split_fanOut1
    ---------------------
    1    Add : 1x64 
    1    Register : 1x1 

    Method Total:
    1    Add : 1x64 
    1    Register : 1x1 
    -------------
------------------------------------
Entry: split_fanOut1_instance Total: 
1    Add : 1x64 
1    Register : 1x1 
------------------------------------

Entry: split_fanOut2_instance
-----------------------------
    Method: split_fanOut2
    ---------------------
    1    Add : 1x64 
    1    Register : 1x1 

    Method Total:
    1    Add : 1x64 
    1    Register : 1x1 
    -------------
------------------------------------
Entry: split_fanOut2_instance Total: 
1    Add : 1x64 
1    Register : 1x1 
------------------------------------

Entry: split_fanOut3_instance
-----------------------------
    Method: split_fanOut3
    ---------------------
    1    Add : 1x64 
    1    Register : 1x1 

    Method Total:
    1    Add : 1x64 
    1    Register : 1x1 
    -------------
------------------------------------
Entry: split_fanOut3_instance Total: 
1    Add : 1x64 
1    Register : 1x1 
------------------------------------

Entry: split_fanOut4_instance
-----------------------------
    Method: split_fanOut4
    ---------------------
    1    Add : 1x64 
    1    Register : 1x1 

    Method Total:
    1    Add : 1x64 
    1    Register : 1x1 
    -------------
------------------------------------
Entry: split_fanOut4_instance Total: 
1    Add : 1x64 
1    Register : 1x1 
------------------------------------

Entry: split_scheduler_instance
-------------------------------
    Method: split_scheduler
    -----------------------
    4    Less Thans : 4x32 
    7    Ors : 7x1 
    6    Muxs : 6x32 
    16   Nots : 16x1 
    53   Ands : 53x1 
    4    Logical Ands : 4x1 
    5    Equal Tos : 5x32 
    3    Registers : 3x1 

    Method Total:
    4    Less Thans : 4x32 
    7    Ors : 7x1 
    6    Muxs : 6x32 
    16   Nots : 16x1 
    53   Ands : 53x1 
    4    Logical Ands : 4x1 
    5    Equal Tos : 5x32 
    3    Registers : 3x1 
    -------------
--------------------------------------
Entry: split_scheduler_instance Total: 
4    Less Thans : 4x32 
7    Ors : 7x1 
6    Muxs : 6x32 
16   Nots : 16x1 
53   Ands : 53x1 
4    Logical Ands : 4x1 
5    Equal Tos : 5x32 
3    Registers : 3x1 
--------------------------------------

